<?xml version='1.0'?>
<ns2:test-suite xmlns:ns2='urn:model.allure.qatools.yandex.ru' start='1681820320103' stop='1681820353347'>
    <name>login:</name>
    <title>login:</title>
    <test-cases>
        <test-case start='1681820320112' status='passed' stop='1681820339374'>
            <name>Login with success</name>
            <title>Login with success</title>
            <labels>
                <label name='language' value='javascript'/>
                <label name='framework' value='codeceptjs'/>
            </labels>
            <parameters/>
            <steps>
                <step start='1681820331927' status='passed' stop='1681820337886'>
                    <name>login_page: doLogin "teste@teste.com", "123456"</name>
                    <title>login_page: doLogin "teste@teste.com", "123456"</title>
                    <attachments/>
                    <steps>
                        <step start='1681820331927' status='passed' stop='1681820334931'>
                            <name>I wait 3</name>
                            <title>I wait 3</title>
                            <attachments/>
                            <steps/>
                        </step>
                        <step start='1681820334932' status='passed' stop='1681820336120'>
                            <name>I fill field "~email", "teste@teste.com"</name>
                            <title>I fill field "~email", "teste@teste.com"</title>
                            <attachments/>
                            <steps/>
                        </step>
                        <step start='1681820336120' status='passed' stop='1681820337176'>
                            <name>I fill field "~senha", "123456"</name>
                            <title>I fill field "~senha", "123456"</title>
                            <attachments/>
                            <steps/>
                        </step>
                        <step start='1681820337176' status='passed' stop='1681820337885'>
                            <name>I tap "~entrar"</name>
                            <title>I tap "~entrar"</title>
                            <attachments/>
                            <steps/>
                        </step>
                    </steps>
                </step>
                <step start='1681820337886' status='passed' stop='1681820339374'>
                    <name>home_page: checkLoginSuccess </name>
                    <title>home_page: checkLoginSuccess </title>
                    <attachments/>
                    <steps>
                        <step start='1681820337886' status='passed' stop='1681820339299'>
                            <name>I wait for element "~salvar", 5</name>
                            <title>I wait for element "~salvar", 5</title>
                            <attachments/>
                            <steps/>
                        </step>
                        <step start='1681820339299' status='passed' stop='1681820339373'>
                            <name>I see element "~salvar"</name>
                            <title>I see element "~salvar"</title>
                            <attachments/>
                            <steps/>
                        </step>
                    </steps>
                </step>
            </steps>
            <attachments/>
        </test-case>
        <test-case start='1681820339948' status='passed' stop='1681820352926'>
            <name>Login with error</name>
            <title>Login with error</title>
            <labels>
                <label name='language' value='javascript'/>
                <label name='framework' value='codeceptjs'/>
            </labels>
            <parameters/>
            <steps>
                <step start='1681820346191' status='passed' stop='1681820352147'>
                    <name>login_page: doLogin "teste@testes.com", "123456"</name>
                    <title>login_page: doLogin "teste@testes.com", "123456"</title>
                    <attachments/>
                    <steps>
                        <step start='1681820346191' status='passed' stop='1681820349195'>
                            <name>I wait 3</name>
                            <title>I wait 3</title>
                            <attachments/>
                            <steps/>
                        </step>
                        <step start='1681820349195' status='passed' stop='1681820350324'>
                            <name>I fill field "~email", "teste@testes.com"</name>
                            <title>I fill field "~email", "teste@testes.com"</title>
                            <attachments/>
                            <steps/>
                        </step>
                        <step start='1681820350324' status='passed' stop='1681820351429'>
                            <name>I fill field "~senha", "123456"</name>
                            <title>I fill field "~senha", "123456"</title>
                            <attachments/>
                            <steps/>
                        </step>
                        <step start='1681820351429' status='passed' stop='1681820352146'>
                            <name>I tap "~entrar"</name>
                            <title>I tap "~entrar"</title>
                            <attachments/>
                            <steps/>
                        </step>
                    </steps>
                </step>
                <step start='1681820352147' status='passed' stop='1681820352926'>
                    <name>login_page: checkLoginError </name>
                    <title>login_page: checkLoginError </title>
                    <attachments/>
                    <steps>
                        <step start='1681820352147' status='passed' stop='1681820352855'>
                            <name>I wait for element "~lognFail", 5</name>
                            <title>I wait for element "~lognFail", 5</title>
                            <attachments/>
                            <steps/>
                        </step>
                        <step start='1681820352855' status='passed' stop='1681820352926'>
                            <name>I see element "~lognFail"</name>
                            <title>I see element "~lognFail"</title>
                            <attachments/>
                            <steps/>
                        </step>
                    </steps>
                </step>
            </steps>
            <attachments/>
        </test-case>
    </test-cases>
</ns2:test-suite>